%YAML 1.1
%TAG !u! tag:unity3d.com,2011:
--- !u!114 &11400000
MonoBehaviour:
  m_ObjectHideFlags: 0
  m_CorrespondingSourceObject: {fileID: 0}
  m_PrefabInstance: {fileID: 0}
  m_PrefabAsset: {fileID: 0}
  m_GameObject: {fileID: 0}
  m_Enabled: 1
  m_EditorHideFlags: 0
  m_Script: {fileID: 11500000, guid: 9d1514134bc4fbd41bb739b1b9a49231, type: 3}
  m_Name: Ground_1_TileRule
  m_EditorClassIdentifier: 
  m_DefaultSprite: {fileID: 6638135309723135012, guid: db0d2c80c56764843bc72aaaba4e30f3,
    type: 3}
  m_DefaultGameObject: {fileID: 0}
  m_DefaultColliderType: 2
  m_TilingRules:
  - m_Id: 0
    m_Sprites:
    - {fileID: 614249398593167923, guid: db0d2c80c56764843bc72aaaba4e30f3, type: 3}
    m_GameObject: {fileID: 0}
    m_MinAnimationSpeed: 1
    m_MaxAnimationSpeed: 1
    m_PerlinScale: 0.5
    m_Output: 0
    m_ColliderType: 2
    m_RandomTransform: 0
    m_Neighbors: 0100000001000000010000000100000001000000010000000100000001000000
    m_NeighborPositions:
    - {x: -1, y: 1, z: 0}
    - {x: 0, y: 1, z: 0}
    - {x: 1, y: 1, z: 0}
    - {x: 1, y: 0, z: 0}
    - {x: 1, y: -1, z: 0}
    - {x: 0, y: -1, z: 0}
    - {x: -1, y: -1, z: 0}
    - {x: -1, y: 0, z: 0}
    m_RuleTransform: 0
  - m_Id: 1
    m_Sprites:
    - {fileID: -8154697403750824274, guid: db0d2c80c56764843bc72aaaba4e30f3, type: 3}
    m_GameObject: {fileID: 0}
    m_MinAnimationSpeed: 1
    m_MaxAnimationSpeed: 1
    m_PerlinScale: 0.5
    m_Output: 0
    m_ColliderType: 1
    m_RandomTransform: 0
    m_Neighbors: 010000000100000001000000020000000200000002000000
    m_NeighborPositions:
    - {x: 0, y: -1, z: 0}
    - {x: 1, y: -1, z: 0}
    - {x: 1, y: 0, z: 0}
    - {x: -1, y: 0, z: 0}
    - {x: -1, y: 1, z: 0}
    - {x: 0, y: 1, z: 0}
    m_RuleTransform: 4
  - m_Id: 2
    m_Sprites:
    - {fileID: 3659999206967041263, guid: db0d2c80c56764843bc72aaaba4e30f3, type: 3}
    m_GameObject: {fileID: 0}
    m_MinAnimationSpeed: 1
    m_MaxAnimationSpeed: 1
    m_PerlinScale: 0.5
    m_Output: 0
    m_ColliderType: 2
    m_RandomTransform: 0
    m_Neighbors: 020000000100000001000000010000000100000001000000
    m_NeighborPositions:
    - {x: 0, y: 1, z: 0}
    - {x: 0, y: -1, z: 0}
    - {x: -1, y: 0, z: 0}
    - {x: 1, y: 0, z: 0}
    - {x: 1, y: -1, z: 0}
    - {x: -1, y: -1, z: 0}
    m_RuleTransform: 1
  - m_Id: 3
    m_Sprites:
    - {fileID: -2764707998375913155, guid: db0d2c80c56764843bc72aaaba4e30f3, type: 3}
    m_GameObject: {fileID: 0}
    m_MinAnimationSpeed: 1
    m_MaxAnimationSpeed: 1
    m_PerlinScale: 0.5
    m_Output: 0
    m_ColliderType: 2
    m_RandomTransform: 0
    m_Neighbors: 01000000010000000200000002000000
    m_NeighborPositions:
    - {x: -1, y: 0, z: 0}
    - {x: 1, y: 0, z: 0}
    - {x: 0, y: 1, z: 0}
    - {x: 0, y: -1, z: 0}
    m_RuleTransform: 1
  - m_Id: 4
    m_Sprites:
    - {fileID: -5402371203011577952, guid: db0d2c80c56764843bc72aaaba4e30f3, type: 3}
    m_GameObject: {fileID: 0}
    m_MinAnimationSpeed: 1
    m_MaxAnimationSpeed: 1
    m_PerlinScale: 0.5
    m_Output: 0
    m_ColliderType: 2
    m_RandomTransform: 0
    m_Neighbors: 0100000001000000020000000200000002000000020000000200000002000000
    m_NeighborPositions:
    - {x: -1, y: 0, z: 0}
    - {x: 0, y: -1, z: 0}
    - {x: 1, y: -1, z: 0}
    - {x: 1, y: 0, z: 0}
    - {x: 1, y: 1, z: 0}
    - {x: 0, y: 1, z: 0}
    - {x: -1, y: 1, z: 0}
    - {x: -1, y: -1, z: 0}
    m_RuleTransform: 4
  - m_Id: 5
    m_Sprites:
    - {fileID: 851360725266832423, guid: db0d2c80c56764843bc72aaaba4e30f3, type: 3}
    m_GameObject: {fileID: 0}
    m_MinAnimationSpeed: 1
    m_MaxAnimationSpeed: 1
    m_PerlinScale: 0.5
    m_Output: 0
    m_ColliderType: 2
    m_RandomTransform: 0
    m_Neighbors: 0100000001000000010000000100000001000000020000000100000001000000
    m_NeighborPositions:
    - {x: -1, y: -1, z: 0}
    - {x: 0, y: -1, z: 0}
    - {x: 1, y: -1, z: 0}
    - {x: 1, y: 0, z: 0}
    - {x: -1, y: 0, z: 0}
    - {x: -1, y: 1, z: 0}
    - {x: 0, y: 1, z: 0}
    - {x: 1, y: 1, z: 0}
    m_RuleTransform: 1
  - m_Id: 6
    m_Sprites:
    - {fileID: 4745045631736074424, guid: db0d2c80c56764843bc72aaaba4e30f3, type: 3}
    m_GameObject: {fileID: 0}
    m_MinAnimationSpeed: 1
    m_MaxAnimationSpeed: 1
    m_PerlinScale: 0.5
    m_Output: 0
    m_ColliderType: 2
    m_RandomTransform: 0
    m_Neighbors: 020000000200000002000000020000000200000001000000
    m_NeighborPositions:
    - {x: 1, y: 1, z: 0}
    - {x: 1, y: 0, z: 0}
    - {x: 1, y: -1, z: 0}
    - {x: 0, y: -1, z: 0}
    - {x: 0, y: 1, z: 0}
    - {x: -1, y: 0, z: 0}
    m_RuleTransform: 1
  - m_Id: 7
    m_Sprites:
    - {fileID: -3550330794870416610, guid: db0d2c80c56764843bc72aaaba4e30f3, type: 3}
    m_GameObject: {fileID: 0}
    m_MinAnimationSpeed: 1
    m_MaxAnimationSpeed: 1
    m_PerlinScale: 0.5
    m_Output: 0
    m_ColliderType: 2
    m_RandomTransform: 0
    m_Neighbors: 0100000001000000010000000100000001000000010000000200000002000000
    m_NeighborPositions:
    - {x: 0, y: -1, z: 0}
    - {x: -1, y: -1, z: 0}
    - {x: -1, y: 0, z: 0}
    - {x: -1, y: 1, z: 0}
    - {x: 0, y: 1, z: 0}
    - {x: 1, y: 0, z: 0}
    - {x: 1, y: 1, z: 0}
    - {x: 1, y: -1, z: 0}
    m_RuleTransform: 1
