%YAML 1.1
%TAG !u! tag:unity3d.com,2011:
--- !u!114 &11400000
MonoBehaviour:
  m_ObjectHideFlags: 0
  m_CorrespondingSourceObject: {fileID: 0}
  m_PrefabInstance: {fileID: 0}
  m_PrefabAsset: {fileID: 0}
  m_GameObject: {fileID: 0}
  m_Enabled: 1
  m_EditorHideFlags: 0
  m_Script: {fileID: -1893448595, guid: a040fb66244a7f54289914d98ea4ef7d, type: 3}
  m_Name: Jump
  m_EditorClassIdentifier: 
  _data:
    _json: '{"graph":{"variables":{"collection":{"$content":[],"$version":"A"},"$version":"A"},"controlInputDefinitions":[],"controlOutputDefinitions":[],"valueInputDefinitions":[{"hasDefaultValue":false,"defaultValue":{"$content":0.0,"$type":"System.Single"},"_type":"System.Single","key":"playerSpeed","label":null,"summary":null,"hideLabel":false},{"hasDefaultValue":false,"defaultValue":{"$content":0.0,"$type":"System.Single"},"_type":"System.Single","key":"MaxHighJump","label":null,"summary":null,"hideLabel":false},{"hasDefaultValue":false,"defaultValue":{"$content":0.0,"$type":"System.Single"},"_type":"System.Single","key":"MaxDistance","label":null,"summary":null,"hideLabel":false},{"hasDefaultValue":false,"defaultValue":{"$content":0.0,"$type":"System.Single"},"_type":"System.Single","key":"Gravity","label":null,"summary":null,"hideLabel":false}],"valueOutputDefinitions":[{"_type":"System.Single","key":"Y","label":null,"summary":null,"hideLabel":false}],"title":null,"summary":null,"pan":{"x":-439.5565,"y":102.8896},"zoom":0.95,"elements":[{"defaultValues":{},"position":{"x":-830.0,"y":-106.0},"guid":"2ed43335-f58a-4655-8894-05a401cbe778","$version":"A","$type":"Bolt.GraphInput","$id":"14"},{"defaultValues":{},"position":{"x":64.0,"y":-98.0},"guid":"9b106fe0-d385-4256-9637-7196d9c7f6de","$version":"A","$type":"Bolt.GraphOutput"},{"defaultValues":{"b":{"$content":2.0,"$type":"System.Single"}},"position":{"x":-491.0,"y":150.0},"guid":"5ca3ec48-b1d0-4070-a945-019010a6539d","$version":"A","$type":"Bolt.ScalarMultiply","$id":"18"},{"defaultValues":{"b":{"$content":2.0,"$type":"System.Single"}},"position":{"x":-659.0,"y":148.0},"guid":"25c73302-db71-466c-a877-5a2a8ec73068","$version":"A","$type":"Bolt.ScalarMultiply","$id":"20"},{"defaultValues":{"dividend":{"$content":1.0,"$type":"System.Single"},"divisor":{"$content":1.0,"$type":"System.Single"}},"position":{"x":-333.0,"y":150.0},"guid":"1f4b59a2-9ee0-465c-ac17-40b9e1ac2a52","$version":"A","$type":"Bolt.ScalarDivide","$id":"22"},{"sourceUnit":{"$ref":"20"},"sourceKey":"product","destinationUnit":{"$ref":"18"},"destinationKey":"a","guid":"ccd2684f-08bb-47a3-8c63-ade63fd7e71b","$type":"Bolt.ValueConnection"},{"sourceUnit":{"$ref":"18"},"sourceKey":"product","destinationUnit":{"$ref":"22"},"destinationKey":"dividend","guid":"2f2d739a-fa50-4f69-b37a-092fc87cf58d","$type":"Bolt.ValueConnection"},{"sourceUnit":{"$ref":"14"},"sourceKey":"playerSpeed","destinationUnit":{"$ref":"18"},"destinationKey":"b","guid":"cb2244c1-168d-4d66-9f8d-bffd38a6282c","$type":"Bolt.ValueConnection"},{"sourceUnit":{"$ref":"14"},"sourceKey":"MaxHighJump","destinationUnit":{"$ref":"20"},"destinationKey":"a","guid":"c06f64bd-422b-4e06-8f1b-c87190deddd6","$type":"Bolt.ValueConnection"},{"sourceUnit":{"$ref":"14"},"sourceKey":"MaxDistance","destinationUnit":{"$ref":"22"},"destinationKey":"divisor","guid":"0082ff64-8061-42f0-9dc5-7b9d8c015cd6","$type":"Bolt.ValueConnection"},{"position":{"xMin":-681.0,"yMin":101.0,"xMax":-205.0,"yMax":324.0},"label":"V0","comment":null,"color":{"r":0.0,"g":0.0,"b":0.0,"a":1.0},"guid":"5b92552d-bb4a-49e6-88b8-1251b4acc691","$version":"A","$type":"Ludiq.GraphGroup"}],"$version":"A"}}'
    _objectReferences: []
