%YAML 1.1
%TAG !u! tag:unity3d.com,2011:
--- !u!114 &11400000
MonoBehaviour:
  m_ObjectHideFlags: 0
  m_CorrespondingSourceObject: {fileID: 0}
  m_PrefabInstance: {fileID: 0}
  m_PrefabAsset: {fileID: 0}
  m_GameObject: {fileID: 0}
  m_Enabled: 1
  m_EditorHideFlags: 0
  m_Script: {fileID: -1893448595, guid: a040fb66244a7f54289914d98ea4ef7d, type: 3}
  m_Name: setParameterForJump
  m_EditorClassIdentifier: 
  _data:
    _json: '{"graph":{"variables":{"collection":{"$content":[],"$version":"A"},"$version":"A"},"controlInputDefinitions":[],"controlOutputDefinitions":[],"valueInputDefinitions":[{"hasDefaultValue":false,"defaultValue":{"$content":0.0,"$type":"System.Single"},"_type":"System.Single","key":"playerSpeed","label":null,"summary":null,"hideLabel":false},{"hasDefaultValue":false,"defaultValue":{"$content":0.0,"$type":"System.Single"},"_type":"System.Single","key":"JumpHeightPart1","label":null,"summary":null,"hideLabel":false},{"hasDefaultValue":false,"defaultValue":{"$content":0.0,"$type":"System.Single"},"_type":"System.Single","key":"JumpHeightPart2","label":null,"summary":null,"hideLabel":false},{"hasDefaultValue":false,"defaultValue":{"$content":0.0,"$type":"System.Single"},"_type":"System.Single","key":"DistanceToHeightPart1","label":null,"summary":null,"hideLabel":false},{"hasDefaultValue":false,"defaultValue":{"$content":0.0,"$type":"System.Single"},"_type":"System.Single","key":"DistanceToHeightPart2","label":null,"summary":null,"hideLabel":false}],"valueOutputDefinitions":[{"_type":"System.Single","key":"jumpGravityPart1","label":null,"summary":null,"hideLabel":false},{"_type":"System.Single","key":"jumpGravityPart2","label":null,"summary":null,"hideLabel":false},{"_type":"System.Single","key":"jumpVelocity","label":null,"summary":null,"hideLabel":false},{"_type":"System.Single","key":"JumpVelp2","label":null,"summary":null,"hideLabel":false}],"title":null,"summary":null,"pan":{"x":-222.5604,"y":75.03204},"zoom":0.8,"elements":[{"defaultValues":{},"position":{"x":-1329.0,"y":-21.0},"guid":"577d0ea0-dfcb-4611-9621-4b8cc8c171f8","$version":"A","$type":"Bolt.GraphInput","$id":"18"},{"defaultValues":{"dividend":{"$content":1.0,"$type":"System.Single"},"divisor":{"$content":1.0,"$type":"System.Single"}},"position":{"x":-286.0,"y":87.0},"guid":"fcffa83b-0cc9-45f8-af59-3a257e28c17f","$version":"A","$type":"Bolt.ScalarDivide","$id":"20"},{"chainable":false,"member":{"name":"Pow","parameterTypes":["System.Single","System.Single"],"targetType":"UnityEngine.Mathf","targetTypeName":"UnityEngine.Mathf","$version":"A"},"defaultValues":{"%f":{"$content":0.0,"$type":"System.Single"},"%p":{"$content":2.0,"$type":"System.Single"}},"position":{"x":-772.0,"y":139.0},"guid":"8b880581-9bc4-4979-a2d4-da5e3d35fabc","$version":"A","$type":"Bolt.InvokeMember","$id":"22"},{"defaultValues":{"b":{"$content":-2.0,"$type":"System.Single"}},"position":{"x":-803.0,"y":31.0},"guid":"77d2190d-24ad-4051-b031-33469d1a8ca2","$version":"A","$type":"Bolt.ScalarMultiply","$id":"25"},{"defaultValues":{},"position":{"x":497.0,"y":-194.0},"guid":"19a9e007-3402-4cf3-b647-c9a2c8b531c0","$version":"A","$type":"Bolt.GraphOutput","$id":"27"},{"defaultValues":{"b":{"$content":-2.0,"$type":"System.Single"}},"position":{"x":-639.0,"y":-274.0},"guid":"6f776083-9ca6-4229-9856-5f52e09595ad","$version":"A","$type":"Bolt.ScalarMultiply","$id":"29"},{"defaultValues":{"dividend":{"$content":1.0,"$type":"System.Single"},"divisor":{"$content":1.0,"$type":"System.Single"}},"position":{"x":-483.0,"y":-272.0},"guid":"dea58acb-e15a-46e3-8290-d9d885008f26","$version":"A","$type":"Bolt.ScalarDivide","$id":"31"},{"defaultValues":{"b":{"$content":2.0,"$type":"System.Single"}},"position":{"x":212.0,"y":-146.0},"guid":"532e764a-83d1-454d-884f-790112a1e42d","$version":"A","$type":"Bolt.ScalarMultiply","$id":"33"},{"defaultValues":{"b":{"$content":-2.0,"$type":"System.Single"}},"position":{"x":-639.0,"y":91.0},"guid":"5fd0ae39-5185-419b-a415-7095ad4edf0c","$version":"A","$type":"Bolt.ScalarMultiply","$id":"35"},{"chainable":false,"member":{"name":"Pow","parameterTypes":["System.Single","System.Single"],"targetType":"UnityEngine.Mathf","targetTypeName":"UnityEngine.Mathf","$version":"A"},"defaultValues":{"%f":{"$content":0.0,"$type":"System.Single"},"%p":{"$content":2.0,"$type":"System.Single"}},"position":{"x":-459.0,"y":146.0},"guid":"9565d02d-abac-47ca-8448-0e13ac65d57e","$version":"A","$type":"Bolt.InvokeMember","$id":"37"},{"chainable":false,"member":{"name":"Abs","parameterTypes":["System.Single"],"targetType":"UnityEngine.Mathf","targetTypeName":"UnityEngine.Mathf","$version":"A"},"defaultValues":{"%f":{"$content":0.0,"$type":"System.Single"}},"position":{"x":61.0,"y":-222.0},"guid":"17398af3-17b1-4deb-99bb-50e968b9c828","$version":"A","$type":"Bolt.InvokeMember","$id":"40"},{"defaultValues":{"dividend":{"$content":1.0,"$type":"System.Single"},"divisor":{"$content":1.0,"$type":"System.Single"}},"position":{"x":59.0,"y":-92.0},"guid":"8a3ffc62-3037-430d-bbcc-08aa48c38726","$version":"A","$type":"Bolt.ScalarDivide","$id":"43"},{"chainable":false,"member":{"name":"Pow","parameterTypes":["System.Single","System.Single"],"targetType":"UnityEngine.Mathf","targetTypeName":"UnityEngine.Mathf","$version":"A"},"defaultValues":{"%f":{"$content":0.0,"$type":"System.Single"},"%p":{"$content":2.0,"$type":"System.Single"}},"position":{"x":-645.0,"y":-173.0},"guid":"813e43d9-3727-4a91-9296-eee6d1d239b9","$version":"A","$type":"Bolt.InvokeMember","$id":"45"},{"defaultValues":{"b":{"$content":-2.0,"$type":"System.Single"}},"position":{"x":-803.0,"y":-334.0},"guid":"5d9f04ff-dee2-4364-8c50-f1ca92583cc8","$version":"A","$type":"Bolt.ScalarMultiply","$id":"48"},{"chainable":false,"member":{"name":"Pow","parameterTypes":["System.Single","System.Single"],"targetType":"UnityEngine.Mathf","targetTypeName":"UnityEngine.Mathf","$version":"A"},"defaultValues":{"%f":{"$content":0.0,"$type":"System.Single"},"%p":{"$content":2.0,"$type":"System.Single"}},"position":{"x":-772.0,"y":-227.0},"guid":"0954cf01-f1d9-45ff-9bcf-f95f9b79b2e7","$version":"A","$type":"Bolt.InvokeMember","$id":"50"},{"defaultValues":{"b":{"$content":2.0,"$type":"System.Single"}},"position":{"x":220.0,"y":134.0},"guid":"24d74308-3a86-4b7d-ba58-06606b2afa4f","$version":"A","$type":"Bolt.ScalarMultiply","$id":"53"},{"chainable":false,"member":{"name":"Abs","parameterTypes":["System.Single"],"targetType":"UnityEngine.Mathf","targetTypeName":"UnityEngine.Mathf","$version":"A"},"defaultValues":{"%f":{"$content":0.0,"$type":"System.Single"}},"position":{"x":69.0,"y":58.0},"guid":"6f72db82-0532-41b9-a247-537184ee3b75","$version":"A","$type":"Bolt.InvokeMember","$id":"55"},{"defaultValues":{"dividend":{"$content":1.0,"$type":"System.Single"},"divisor":{"$content":1.0,"$type":"System.Single"}},"position":{"x":67.0,"y":188.0},"guid":"26247925-d74f-49ea-9ae7-300c0826650f","$version":"A","$type":"Bolt.ScalarDivide","$id":"58"},{"sourceUnit":{"$ref":"37"},"sourceKey":"result","destinationUnit":{"$ref":"20"},"destinationKey":"divisor","guid":"df6c886e-a736-4ab0-93e0-2480286e0f54","$type":"Bolt.ValueConnection"},{"sourceUnit":{"$ref":"48"},"sourceKey":"product","destinationUnit":{"$ref":"29"},"destinationKey":"a","guid":"6b4c0e38-6000-487b-8eee-befbd95a8c80","$type":"Bolt.ValueConnection"},{"sourceUnit":{"$ref":"50"},"sourceKey":"result","destinationUnit":{"$ref":"29"},"destinationKey":"b","guid":"9a38535a-a206-4709-8f1a-86c9b80954ed","$type":"Bolt.ValueConnection"},{"sourceUnit":{"$ref":"31"},"sourceKey":"quotient","destinationUnit":{"$ref":"40"},"destinationKey":"%f","guid":"60a9088d-039f-4e06-916a-a0ca4d4bcf43","$type":"Bolt.ValueConnection"},{"sourceUnit":{"$ref":"43"},"sourceKey":"quotient","destinationUnit":{"$ref":"33"},"destinationKey":"b","guid":"28807706-8825-41f2-be7b-0f4da4ac28d5","$type":"Bolt.ValueConnection"},{"sourceUnit":{"$ref":"29"},"sourceKey":"product","destinationUnit":{"$ref":"31"},"destinationKey":"dividend","guid":"ba102e1a-718e-4361-a66d-79809f050838","$type":"Bolt.ValueConnection"},{"sourceUnit":{"$ref":"22"},"sourceKey":"result","destinationUnit":{"$ref":"35"},"destinationKey":"b","guid":"556cc273-48f1-4ccb-ab4a-882d281c367f","$type":"Bolt.ValueConnection"},{"sourceUnit":{"$ref":"35"},"sourceKey":"product","destinationUnit":{"$ref":"20"},"destinationKey":"dividend","guid":"3063dd92-f6bd-4e53-ba3e-85b3faed897f","$type":"Bolt.ValueConnection"},{"sourceUnit":{"$ref":"40"},"sourceKey":"result","destinationUnit":{"$ref":"33"},"destinationKey":"a","guid":"e008d8bf-b3e5-4b4a-a705-1ee2e545ebcb","$type":"Bolt.ValueConnection"},{"sourceUnit":{"$ref":"25"},"sourceKey":"product","destinationUnit":{"$ref":"35"},"destinationKey":"a","guid":"bc7217f5-8a1a-433d-8b50-91e7c888548d","$type":"Bolt.ValueConnection"},{"sourceUnit":{"$ref":"45"},"sourceKey":"result","destinationUnit":{"$ref":"31"},"destinationKey":"divisor","guid":"0e87c30e-70dd-486e-952b-e21115ab18cf","$type":"Bolt.ValueConnection"},{"sourceUnit":{"$ref":"18"},"sourceKey":"playerSpeed","destinationUnit":{"$ref":"43"},"destinationKey":"divisor","guid":"556d447f-3037-4512-883e-02907482697a","$type":"Bolt.ValueConnection"},{"sourceUnit":{"$ref":"18"},"sourceKey":"playerSpeed","destinationUnit":{"$ref":"22"},"destinationKey":"%f","guid":"27233d3d-197b-4e93-9444-ab049d13f1eb","$type":"Bolt.ValueConnection"},{"sourceUnit":{"$ref":"18"},"sourceKey":"playerSpeed","destinationUnit":{"$ref":"50"},"destinationKey":"%f","guid":"dc2c02fc-19f4-4cb8-9b0b-3468c50e0b22","$type":"Bolt.ValueConnection"},{"sourceUnit":{"$ref":"18"},"sourceKey":"JumpHeightPart1","destinationUnit":{"$ref":"48"},"destinationKey":"a","guid":"6d804af5-96fc-41a0-aef2-d367c1f6bf08","$type":"Bolt.ValueConnection"},{"sourceUnit":{"$ref":"18"},"sourceKey":"JumpHeightPart2","destinationUnit":{"$ref":"25"},"destinationKey":"a","guid":"1a71c2e6-47b5-4f20-ba75-f9d8c6a86f4a","$type":"Bolt.ValueConnection"},{"sourceUnit":{"$ref":"18"},"sourceKey":"DistanceToHeightPart1","destinationUnit":{"$ref":"45"},"destinationKey":"%f","guid":"aa75ef6d-09e2-4bfc-95e4-da647e025847","$type":"Bolt.ValueConnection"},{"sourceUnit":{"$ref":"18"},"sourceKey":"DistanceToHeightPart1","destinationUnit":{"$ref":"43"},"destinationKey":"dividend","guid":"10c6ec73-df17-45a5-a79f-5a7847a373cd","$type":"Bolt.ValueConnection"},{"sourceUnit":{"$ref":"18"},"sourceKey":"DistanceToHeightPart2","destinationUnit":{"$ref":"37"},"destinationKey":"%f","guid":"76980ab8-4c5d-4666-8d5f-0ae15195a315","$type":"Bolt.ValueConnection"},{"sourceUnit":{"$ref":"31"},"sourceKey":"quotient","destinationUnit":{"$ref":"27"},"destinationKey":"jumpGravityPart1","guid":"bcb5b6b8-55f4-420f-a47b-aa2a8d6003bf","$type":"Bolt.ValueConnection"},{"sourceUnit":{"$ref":"20"},"sourceKey":"quotient","destinationUnit":{"$ref":"27"},"destinationKey":"jumpGravityPart2","guid":"c5e68e59-e18e-4bd9-aa6b-2cc22a1598a4","$type":"Bolt.ValueConnection"},{"sourceUnit":{"$ref":"33"},"sourceKey":"product","destinationUnit":{"$ref":"27"},"destinationKey":"jumpVelocity","guid":"d8a36ec6-16f4-4f25-8dc6-197d6b0c4901","$type":"Bolt.ValueConnection"},{"sourceUnit":{"$ref":"55"},"sourceKey":"result","destinationUnit":{"$ref":"53"},"destinationKey":"a","guid":"6720b28c-8838-4fbd-a850-9c5c359716c8","$type":"Bolt.ValueConnection"},{"sourceUnit":{"$ref":"58"},"sourceKey":"quotient","destinationUnit":{"$ref":"53"},"destinationKey":"b","guid":"0068f459-7773-4e6f-83f1-2db677d75a4d","$type":"Bolt.ValueConnection"},{"sourceUnit":{"$ref":"18"},"sourceKey":"DistanceToHeightPart1","destinationUnit":{"$ref":"58"},"destinationKey":"dividend","guid":"2cfb4185-e2ff-4e52-a1e3-dc2a13866c43","$type":"Bolt.ValueConnection"},{"sourceUnit":{"$ref":"18"},"sourceKey":"playerSpeed","destinationUnit":{"$ref":"58"},"destinationKey":"divisor","guid":"e3e13bf6-bb42-4c55-9bc3-76ad5b30a5c5","$type":"Bolt.ValueConnection"},{"sourceUnit":{"$ref":"20"},"sourceKey":"quotient","destinationUnit":{"$ref":"55"},"destinationKey":"%f","guid":"455bee7e-5056-4145-b32d-954047c383db","$type":"Bolt.ValueConnection"},{"sourceUnit":{"$ref":"53"},"sourceKey":"product","destinationUnit":{"$ref":"27"},"destinationKey":"JumpVelp2","guid":"adf077ae-69ea-4647-8fa9-7de91cfc32a7","$type":"Bolt.ValueConnection"},{"position":{"xMin":20.0,"yMin":-277.0,"xMax":373.0,"yMax":41.0},"label":"Jumpvelocity
      = abs( jumpGravity)*(DistanceToHeight/playerSpeed)","comment":null,"color":{"r":0.0,"g":0.0,"b":0.0,"a":1.0},"guid":"8493a2bf-821e-406b-a7a5-86a4d0b72339","$version":"A","$type":"Ludiq.GraphGroup"},{"position":{"xMin":-891.0,"yMin":-24.0,"xMax":-97.0,"yMax":309.0},"label":"JumpGravity
      = -(2*JumpHeight)*PlayerSpeed^2/DistanceToHeight^2","comment":null,"color":{"r":0.0,"g":0.0,"b":0.0,"a":1.0},"guid":"95fdc509-d6a3-48af-b7e6-e3525d939ead","$version":"A","$type":"Ludiq.GraphGroup"},{"position":{"xMin":-905.0,"yMin":-383.0,"xMax":-111.0,"yMax":-48.0},"label":"JumpGravity
      = -(2*JumpHeight)*PlayerSpeed^2/DistanceToHeight^2","comment":null,"color":{"r":0.0,"g":0.0,"b":0.0,"a":1.0},"guid":"5689ad31-be86-43f5-83e0-78e959ecf321","$version":"A","$type":"Ludiq.GraphGroup"}],"$version":"A"}}'
    _objectReferences: []
